Lab 9
…
name<-read_csv(here("week 9", "StateNames_A.csv"))

Section 3: Question 1

Code

name|>
  rename(sex = Gender)|>
  filter(Name == "Allison")|>
  group_by(sex,State)|>
  summarise(Name = n(), .groups = 'drop')|>
  pivot_wider(names_from = sex, values_from = Name, values_fill = 0)

# A tibble: 51 × 3
   State     F     M
   <chr> <int> <int>
 1 AK       18     0
 2 AL       18     0
 3 AR       18     0
 4 AZ       18     0
 5 CA       18     0
 6 CO       18     0
 7 CT       18     0
 8 DC       18     0
 9 DE       18     0
10 FL       18     0
# … with 41 more rows
…
