Practice Activity 4: Tidy Data with tidyr
…
Code

military_clean_longer|>
  group_by(Year,Country)|>
  slice_max(Spending)

# A tibble: 4,034 × 5
# Groups:   Year, Country [4,034]
   Country      Notes `Reporting year` Year  Spending
   <chr>        <chr> <chr>            <chr>    <dbl>
 1 Australia    <NA>  <NA>             1988    0.0704
 2 Austria      <NA>  <NA>             1988    0.0270
 3 Bangladesh   54    July-June        1988    0.103 
 4 Belgium      <NA>  <NA>             1988    0.0464
 5 Bolivia      37    <NA>             1988    0.0843
 6 Botswana     <NA>  April-March      1988    0.100 
 7 Brunei       57    <NA>             1988    0.132 
 8 Burkina Faso †     <NA>             1988    0.139 
 9 Canada       <NA>  <NA>             1988    0.0434
10 Colombia     39    <NA>             1988    0.109 
# … with 4,024 more rows
…
